building_htd_resource_quarry

[OBJECT:BUILDING]

[BUILDING_WORKSHOP:HTD_QUARRY]
	[NAME:Quarry]
	[NAME_COLOR:7:0:1]
	[WORK_LOCATION:3:2]
	[BUILD_LABOR:ARCHITECT]
	[BUILD_KEY:NONE]
	[DIM:5:3]
	[BLOCK:1:1:1:1:1:1]
	[BLOCK:2:0:0:0:1:1]
	[BLOCK:3:1:0:0:0:1]
	[TILE:0:1:178:177:178:178:178]
	[TILE:0:2:176:176:176:176:178]
	[TILE:0:3:177:176:176:176:177]
	[COLOR:0:1:MAT:MAT:MAT:MAT:MAT]
	[COLOR:0:2:MAT:MAT:MAT:MAT:MAT]
	[COLOR:0:3:MAT:MAT:MAT:MAT:MAT]
	[TILE:1:1:219:178:178:219:219]
	[TILE:1:2:176:46:46:176:178]
	[TILE:1:3:177:176:46:46:178]
	[COLOR:1:1:MAT:MAT:MAT:MAT:MAT]
	[COLOR:1:2:MAT:MAT:MAT:MAT:MAT]
	[COLOR:1:3:MAT:MAT:MAT:MAT:MAT]
	[TILE:2:1:219:219:219:219:219]
	[TILE:2:2:7:46:46:7:219]
	[TILE:2:3:177:176:46:46:219]
	[COLOR:2:1:MAT:MAT:MAT:MAT:MAT]
	[COLOR:2:2:MAT:MAT:MAT:MAT:MAT]
	[COLOR:2:3:MAT:MAT:MAT:MAT:MAT]
	[TILE:3:1:219:219:219:219:219]
	[TILE:3:2:7:46:46:7:219]
	[TILE:3:3:219:7:46:46:219]
	[COLOR:3:1:MAT:MAT:MAT:MAT:MAT]
	[COLOR:3:2:MAT:MAT:MAT:MAT:MAT]
	[COLOR:3:3:MAT:MAT:MAT:MAT:MAT]
	[BUILD_ITEM:3:NONE:NONE:NONE:NONE][BUILDMAT][WORTHLESS_STONE_ONLY][CAN_USE_ARTIFACT]